Calculates Bradley-Terry probabilities — btprob • BradleyTerryScalable
…
#> 8         3     Amy     Dan 0.6021258 0.3978742
#> 9         3     Ben     Dan 0.5346338 0.4653662
btprob(fit2a, subset = function(x) "Amy" %in% names(x))
#> $`3`
#> 4 x 4 sparse Matrix of class "dgCMatrix"
#>        player2
#> player1       Cyd       Amy       Ben       Dan
#>     Cyd .         0.6364291 0.6975107 0.7259617
#>     Amy 0.3635709 .         0.5684605 0.6021258
#>     Ben 0.3024893 0.4315395 .         0.5346338
#>     Dan 0.2740383 0.3978742 0.4653662 .        
#> 
fit2b <- btfit(toy_btdata, 1.1)
btprob(fit2b, as_df = TRUE)
#> # A tibble: 28 x 5
#>       component player1 player2 prob1wins prob2wins
#>           <chr>   <chr>   <chr>     <dbl>     <dbl>
#>  1 full_dataset     Eve     Cyd 0.8067082 0.1932918
#>  2 full_dataset     Eve     Han 0.8396707 0.1603293
#>  3 full_dataset     Cyd     Han 0.5565123 0.4434877
#>  4 full_dataset     Eve     Amy 0.8784344 0.1215656
#>  5 full_dataset     Cyd     Amy 0.6338864 0.3661136
#>  6 full_dataset     Han     Amy 0.5797890 0.4202110
#>  7 full_dataset     Eve     Gal 0.8811003 0.1188997
#>  8 full_dataset     Cyd     Gal 0.6397156 0.3602844
#>  9 full_dataset     Han     Gal 0.5859168 0.4140832
#> 10 full_dataset     Amy     Gal 0.5063006 0.4936994
#> # ... with 18 more rows
…
